{			
	"graph1": {		
		"header": "Compare country data with global averages",	
		"data" : {	
			"GLOBAL": [40,41,31,30,31,34,34,35,36,38,40,45,54],	
			"ARGENTINA": [0,41,36,40,53,51,45,41,63,37,59,52,50],	
			"AUSTRALIA": [32,61,52,49,45,54,50,45,41,42,38,34,41],	
			"AUSTRIA": [31,33,44,28,35,27,40,41,42,39,34,46,58],	
			"BELGIUM": [42,36,26,19,27,36,27,22,13,24,24,35,45],	
			"BRAZIL": [0,0,0,0,64,57,71,68,63,61,43,34,52],	
			"BULGARIA": [0,0,0,0,0,42,51,54,44,50,62,68,62],	
			"CANADA": [66,36,31,24,21,29,25,34,31,32,34,41,48],	
			"CHINA": [24,19,15,15,40,24,23,35,24,24,10,13,16],	
			"COLOMBIA": [0,0,0,39,35,25,33,30,57,47,50,42,54],	
			"COSTA RICA": [0,93,34,48,36,30,35,40,51,46,35,35,49],	
			"CROATIA": [0,0,0,0,0,0,0,0,0,0,0,0,75],	
			"CZECH REPUBLIC": [0,0,37,17,19,22,14,9,11,18,30,36,35],	
			"FINLAND": [0,0,0,0,0,0,0,27,33,22,37,45,67],	
			"FRANCE": [30,40,31,18,23,20,29,33,21,29,23,29,36],	
			"GERMANY": [53,27,34,35,29,40,42,35,40,46,49,51,64],	
			"GREECE": [0,0,47,37,29,41,24,38,42,59,59,61,77],	
			"GUATEMALA": [0,0,23,20,36,27,36,33,46,44,39,38,43],	
			"HONG KONG": [31,49,61,37,44,42,35,57,56,65,69,76,75],	
			"HUNGARY": [0,0,0,0,30,23,34,35,45,47,57,51,72],	
			"INDIA": [13,9,12,20,16,67,48,61,64,58,48,56,63],	
			"IRELAND": [32,17,14,5,4,5,2,3,2,11,20,18,27],	
			"ISRAEL": [0,0,0,0,0,0,36,50,49,39,56,49,65],	
			"ITALY": [32,23,18,26,31,29,14,17,34,28,31,37,47],	
			"JAPAN": [58,61,63,55,76,80,81,85,81,83,86,89,88],	
			"MEXICO": [78,82,28,44,43,42,43,38,44,54,40,50,52],	
			"NETHERLANDS": [30,17,15,19,17,17,7,9,5,14,17,24,37],	
			"NEW ZEALAND": [25,62,47,39,30,44,48,51,59,51,46,44,57],	
			"NORWAY": [26,35,40,19,11,9,22,21,20,30,16,25,33],	
			"PANAMA": [0,0,0,0,38,36,47,38,58,46,36,35,43],	
			"PERU": [0,52,28,56,42,10,41,28,67,68,46,43,54],	
			"POLAND": [0,0,49,48,51,4,37,32,33,41,45,51,70],	
			"PORTUGAL": [0,0,0,0,0,0,0,0,0,0,35,46,57],	
			"ROMANIA": [0,0,73,62,36,53,45,54,40,61,72,81,86],	
			"SINGAPORE": [47,57,57,37,53,44,37,47,10,40,51,56,41],	
			"SLOVAKIA": [0,0,0,0,0,0,17,10,22,28,44,54,57],	
			"SLOVENIA": [0,0,0,0,0,29,26,24,19,27,33,40,63],	
			"SOUTH AFRICA": [0,39,38,35,16,14,10,6,8,31,34,32,34],	
			"SPAIN": [57,33,27,8,15,11,9,3,3,14,26,24,41],	
			"SWEDEN": [29,32,39,29,18,17,36,24,33,39,36,42,64],	
			"SWITZERLAND": [48,37,36,36,35,46,28,37,33,41,20,33,38],	
			"TAIWAN": [53,52,51,62,41,54,47,46,45,57,73,78,77],	
			"TURKEY": [0,0,0,0,0,48,41,58,63,52,66,66,51],	
			"UK": [42,34,12,11,9,15,11,13,12,14,18,19,23],	
			"USA": [44,41,22,19,14,52,49,39,40,32,46,46,69]	
		}	
	},		
	"graph2": {		
		"header": "Select a country to view ranking",	
		"data" : {		
			"GLOBAL": [3.27950659947974,0.936388112568698,1.27587461483917,4.20729148489304,4.41673489655046,2.33307215279167,3.29905797259772,2.41206162420239,2.14564460782367,2.52362924184251,2.21348656814192,2.15606404873525,1.81093536481469,6.56635586096844,0.342861461201902,12.816564942147,0.805265753407763,1.05947191060933,4.56305933950839],	
			"ARGENTINA": [3.21969696969699,0,0.946969696969703,0.946969696969703,3.21969696969699,1.51515151515152,6.25000000000004,0.378787878787881,2.08333333333335,3.03030303030305,2.84090909090911,0.757575757575762,0.757575757575762,4.54545454545457,0.189393939393941,6.81818181818186,0.568181818181822,0.757575757575762,10.4166666666667],	
			"AUSTRALIA": [2.66666666666663,0,0.533333333333326,2.26666666666664,7.1999999999999,4.93333333333327,3.73333333333328,0.933333333333321,5.46666666666659,1.59999999999998,1.59999999999998,3.46666666666662,0.933333333333321,7.1999999999999,0.399999999999995,12.5333333333332,0.933333333333321,2.1333333333333,3.59999999999995],	
			"AUSTRIA": [1.2000766312666,0.729399114000892,0.43837824984316,4.68969954768422,0.668752689676641,1.78477259701476,2.85897183210368,0.860827739552324,3.90237379981714,0.430984307183769,2.08061871602788,1.09862490199427,0.439008902701845,1.42974979329753,0,20.920760054804,0.178917678617972,0.194927138565735,6.44812415509147],	
			"BELGIUM": [4.82211788228717,0.321692628211444,1.51947739329707,5.25708400202555,1.25214424185415,3.25040572064421,0.584105211826631,3.05454884966101,1.99067606405616,1.08485522709106,2.80196248805977,6.94888704562468,0.760997524718343,3.9512517336829,0.00631550896370144,8.87291899924756,0.0804983582824947,0.0674811593175973,7.30655681380353],	
			"BRAZIL": [4.6,0.2,0.4,2.8,1.2,2.8,4.2,0.4,2.8,3,4.6,3.8,0,4.4,0.2,7,3.4,2.4,3.2],	
			"BULGARIA": [2.5,0.25,0.75,6.25,8,3.5,2.25,10,0.5,3.5,2.75,1,4.25,3.5,0,10,0.25,0.25,6.25],	
			"CANADA": [2.79255319148935,1.19680851063829,1.06382978723404,4.92021276595742,4.52127659574466,3.32446808510637,2.65957446808509,4.65425531914892,2.65957446808509,2.79255319148935,2.65957446808509,2.26063829787233,1.86170212765957,4.65425531914892,0.664893617021274,13.2978723404255,1.59574468085106,3.98936170212764,2.79255319148935],	
			"CHINA": [1.28205128205127,0,0.213675213675211,0.427350427350422,1.06837606837606,0,0.641025641025634,0.641025641025634,1.70940170940169,2.13675213675211,0.213675213675211,1.9230769230769,0.213675213675211,8.33333333333323,0,5.12820512820507,0.427350427350422,0,3.8461538461538],	
			"COLOMBIA": [3.2,0.2,1.6,2.8,2.4,2.8,1.8,0.4,3.2,3.4,1.6,1.8,0.8,6,0.8,7.6,2.2,1,1.8],	
			"COSTA RICA": [3.25,0.5,1,1.75,1.25,0.75,2.25,1,2.75,5.5,3.5,1.75,0.25,5,0.5,9.25,0,1,7.25],	
			"CROATIA": [1.98511166253102,6.45161290322581,0.496277915632754,8.43672456575682,4.71464019851117,1.98511166253102,1.98511166253102,6.69975186104218,0.496277915632754,0.992555831265508,0.744416873449131,0.744416873449131,16.6253101736973,5.95533498759305,0.992555831265508,25.0620347394541,0.744416873449131,0.248138957816377,1.73697270471464],	
			"CZECH REPUBLIC": [1.38030988674828,0.398831109365477,0.393132410500039,4.00542478428828,0.519708994790441,1.95264578994744,2.87415097093917,5.98619305089882,0.0966115484231144,2.43821461415683,4.12370603333559,0.190418181845444,1.3281202239791,5.31625412615654,0.293031310659846,14.8495866305527,0,0.297215324997708,3.14045067398904],	
			"FINLAND": [2.58709302643289,0.0693962190500999,0.197832454076208,10.2445456377555,1.05050466463024,1.68274248476423,3.15612762953434,2.76177507690247,1.01428977721953,0.0880782988858998,0.125244109515285,0.220013261638076,1.12019953272844,15.3897681966252,0,18.9705721844681,1.68143271107329,0.0191406098200898,0.0396806640340945],	
			"FRANCE": [1.29785975293725,0.551870804584151,0.360554056359767,5.92538867098357,0.442423072792365,1.909008225783,0.324239523735482,1.44544111450752,0.193623847966101,0.157508778355222,0.988981938747693,1.8761797892428,1.93899123031165,2.29416236453706,0.116720957536927,18.6526026472514,0.083322128522806,0.261563173404806,2.0632360066574],	
			"GERMANY": [3.37230297565277,0.313248382759993,1.330958192098,3.53073393283575,3.94969076951161,2.95215848700547,3.97684954109428,0.488218452613144,3.42255588883348,1.81743060799073,3.1017936867613,2.06394789136654,0.462351122781352,3.39359640379188,0.0186768650138394,21.3094799774916,0.252389827779096,0.240355817992405,3.55183223381056],	
			"GREECE": [4.58167330677287,1.19521912350597,3.18725099601591,2.78884462151392,10.7569721115537,2.19123505976094,6.9721115537848,3.78486055776889,3.78486055776889,1.79282868525895,3.5856573705179,2.19123505976094,2.78884462151392,8.36653386454176,0.199203187250994,3.5856573705179,0.796812749003978,0.796812749003978,11.3545816733067],	
			
			"GUATEMALA": [7.77988614800765,0.948766603415567,4.1745730550285,3.22580645161293,1.51802656546491,0.948766603415567,2.08728652751425,0.759013282732454,1.13851992409868,3.22580645161293,4.55407969639472,1.51802656546491,0.379506641366227,9.48766603415566,0.379506641366227,6.26185958254274,0.759013282732454,0.56925996204934,7.96963946869076],	
			"HONG KONG": [5.84615384615382,1.53846153846153,1.23076923076923,2.46153846153845,7.99999999999997,0.615384615384613,8.61538461538458,1.84615384615384,2.46153846153845,0.615384615384613,5.23076923076921,0.615384615384613,0.92307692307692,19.076923076923,1.23076923076923,3.38461538461537,0.307692307692306,0,3.07692307692307],	
			"HUNGARY": [3.5856573705179,0.597609561752983,0.398406374501989,7.1713147410358,3.78486055776889,4.18326693227088,3.18725099601591,0.398406374501989,1.59362549800795,0.398406374501989,0.796812749003978,1.59362549800795,5.57768924302784,2.58964143426293,0,30.0796812749002,0.597609561752983,1.19521912350597,0.597609561752983],	
			"INDIA": [6.61157024793386,0.550964187327822,1.37741046831955,0.275482093663911,9.09090909090906,4.40771349862258,13.2231404958677,0.550964187327822,1.92837465564738,0.826446280991733,1.37741046831955,1.65289256198347,1.65289256198347,18.7327823691459,0.275482093663911,2.4793388429752,0,3.85674931129475,1.37741046831955],	
			"IRELAND": [0.627782258184698,0.49020537879831,1.28023816707738,0.789968695618629,2.60925514252603,2.25535468661135,1.47007477852594,0.172385327367293,1.94133188891009,1.81583798642448,4.68049357504462,0.770631248916561,1.09048933350243,5.48873879480402,0,12.7937132489705,0.105456264044479,0,2.07989074286014],	
			"ISRAEL": [5.68627450980389,4.70588235294115,1.56862745098038,3.72549019607841,9.80392156862738,2.15686274509802,2.74509803921567,5.09803921568624,1.37254901960783,3.13725490196076,2.74509803921567,4.5098039215686,1.37254901960783,10.392156862745,0.392156862745095,14.1176470588234,0.392156862745095,1.56862745098038,1.37254901960783],	
			"ITALY": [2.16254861308997,0.513452894982035,0.181089012992976,3.55346725780625,1.43150101002573,2.04365643983534,1.0910008883841,0.658066668405579,0.130042681611263,3.88041632152185,2.12402599430068,2.00896674906495,1.67793081812089,3.29805243365643,0.256149160300911,13.7236742876809,1.65534904786766,1.68169100892025,4.15457559429418],	
			"JAPAN": [6.70194003527319,0.617283950617267,4.76190476190464,3.61552028218685,18.518518518518,4.14462081128737,12.7865961199291,1.23456790123453,0.35273368606701,1.41093474426804,1.32275132275129,2.91005291005283,0.529100529100515,16.1375661375657,0.440917107583762,2.73368606701932,0.70546737213402,2.29276895943556,4.93827160493814],	
			"MEXICO": [4.25531914893615,2.92553191489361,1.99468085106382,4.92021276595742,2.65957446808509,0.797872340425529,1.4627659574468,1.59574468085106,1.06382978723404,9.97340425531912,5.5851063829787,1.19680851063829,0.797872340425529,6.91489361702125,0.531914893617019,9.30851063829784,1.86170212765957,1.19680851063829,2.79255319148935],	
			"NETHERLANDS": [1.37393387065932,0.571149896131818,0.130230968963049,3.87058892346103,0.243032845718409,7.40947075461131,0.727490786415035,0.570911781107188,2.78954370891773,1.46359790516255,0.146821923500866,3.16649329486109,0.577676021394796,3.30163659438282,0,15.7020118674697,3.45165853264621,0.369321446833561,6.98603152017012],	
			"NEW ZEALAND": [2.2222222222222,0.987654320987646,1.72839506172838,4.1975308641975,8.88888888888881,5.67901234567896,1.97530864197529,1.23456790123456,4.1975308641975,3.20987654320985,2.46913580246911,4.44444444444441,0.493827160493823,4.1975308641975,0.246913580246912,16.2962962962962,0.740740740740735,2.71604938271603,4.69135802469132],	
			"NORWAY": [1.88920937055292,0,0,7.16968579337698,3.48967577555079,1.16762835710931,1.71491109215435,1.11139548358022,4.3239857720952,0.442209891626296,1.51882459600102,0.491917165600443,0.123455942378382,3.99403988283322,0,16.4427118355926,0.512189278025315,0,9.25880003438936],	
			"PANAMA": [3.5,0.5,1.5,2.75,4.25,0.5,4.25,0.5,0.75,2,4.25,1.75,0.5,8.25,0.25,3.5,0.25,0,7.25],	
			"PERU": [4.2592539850958,0.0871546417371366,4.46432144104681,2.26715706494589,3.31076943040864,1.33009019965346,3.20381463383871,1.30304226239593,0.749534514583456,3.58599493972966,3.43824771084893,4.01552003964898,1.82394493095067,9.96453175999963,0.672305778185665,7.48411498957038,1.15455387939308,2.61812391595557,5.83776289521148],	
			"POLAND": [1.8,1.2,0.4,6.4,3.8,3,1.6,5.6,1.2,5.8,1.8,1.8,2.2,2.6,0,23,0.2,0.6,1],	
			"PORTUGAL": [1.99004975124377,1.74129353233829,2.98507462686565,6.21890547263677,1.74129353233829,1.74129353233829,1.74129353233829,0.995024875621883,0.746268656716412,1.99004975124377,0.746268656716412,0.746268656716412,2.48756218905471,1.24378109452735,0.497512437810942,19.6517412935322,0.995024875621883,1.74129353233829,9.70149253731335],	
			"ROMANIA": [3.99002493765588,1.49625935162096,0.748129675810477,3.99002493765588,6.98254364089779,1.24688279301746,2.24438902743143,3.74064837905239,2.24438902743143,3.74064837905239,1.99501246882794,2.24438902743143,4.48877805486286,3.99002493765588,0.99750623441397,31.6708229426434,0.498753117206985,0,2.49376558603492],	
			"SINGAPORE": [3.84615384615387,0.320512820512822,1.12179487179488,5.44871794871798,7.69230769230775,0.160256410256411,2.24358974358976,2.56410256410258,4.16666666666669,2.8846153846154,2.72435897435899,2.40384615384617,0.160256410256411,11.2179487179488,0.160256410256411,4.00641025641028,0.801282051282056,0.961538461538468,6.08974358974363],	
			"SLOVAKIA": [1.99203187250994,1.79282868525895,0.996015936254972,7.76892430278878,2.39043824701193,2.19123505976094,2.98804780876491,2.19123505976094,0.398406374501989,5.37848605577685,1.39442231075696,1.19521912350597,3.3864541832669,4.38247011952188,0.597609561752983,23.7051792828683,0.398406374501989,3.5856573705179,3.18725099601591],	
			"SLOVENIA": [1.75,2,0,8.75,5.75,3.75,3.25,6.75,0.75,4,0.25,4.25,2.5,4.25,1.5,27.5,1.75,0.25,2],	
			"SOUTH AFRICA": [4.12573673870338,0.39292730844794,0.982318271119852,1.57170923379176,1.57170923379176,1.57170923379176,1.9646365422397,0.785854616895881,3.73280943025544,1.17878192534382,1.37524557956779,2.35756385068764,0.19646365422397,5.3045186640472,0.19646365422397,8.44793713163072,0.982318271119852,1.37524557956779,5.69744597249514],	
			"SPAIN": [0.201640993035877,0.552769190962972,0.129844207348276,1.50061715263581,1.65449980294475,0.310682384997386,2.5555814761219,1.39079953813667,0.126196763006246,1.57154307764146,0.53552966748105,0.534960561701315,0.678110568082886,0.926583560657759,0.177049320364052,6.92216266570552,0.764933614446444,0.409820317116553,2.23010975974843],	
			"SWEDEN": [1.6307285934293,0.0194427747963567,0,8.7306736606691,1.49710304702141,0.305406740373521,1.29457623621325,0.669880619189175,0.167789802865503,2.22755762891614,0.00810842366543404,3.28975732824552,1.74139675532604,7.34728884557552,0,12.2836356891361,0.855150502417105,0.443170411255542,2.7098739787512],	
			"SWITZERLAND": [1.98658310837041,0,3.5096285695622,2.39860148403511,2.52826243966148,3.31842339891325,0.869458366236658,1.54549751024213,8.6378575304182,1.41582196645651,0.664380096160999,0.286263149659187,0.146120609455083,1.81598037544828,0.00351471493894726,17.6529693566683,0.0288036460879682,0.150644793019386,2.3409452056434],	
			"TAIWAN": [2.89575289575283,1.6409266409266,0.772200772200754,4.53667953667943,9.9420849420847,0.67567567567566,7.72200772200754,1.7374517374517,4.92277992277981,4.53667953667943,3.57142857142849,7.23938223938207,5.59845559845547,17.2779922779918,1.25482625482623,2.02702702702698,0.193050193050189,0,12.1621621621619],	
			"TURKEY": [6.12516644474028,0.932090545938738,0.53262316910785,3.1957390146471,9.58721704394129,0.798934753661775,1.86418109187748,10.51930758988,1.19840213049266,3.72836218375495,1.46471371504659,1.19840213049266,1.59786950732355,5.99201065246332,0.133155792276963,13.3155792276962,0.798934753661775,0.266311584553925,9.32090545938737],	
			"UK": [4.39813219444489,0.0564447185031541,0.137061646707151,1.33195669813581,1.08666343458349,4.58765384190408,0.3155962189574,0.955938360817968,3.36352285345948,0.456595237815965,1.50009894707949,0.229549314618574,0.888351559339404,1.89442052109936,0.0180882532939809,4.65780230061664,0,2.8118213019465,2.03131908742468],	
			"USA": [6.32703368940021,1.64338537387018,4.60147904683652,6.2448644207067,8.29909613804442,4.02629416598195,9.44946589975354,6.16269515201319,1.88989317995071,2.38290879211177,1.8077239112572,4.35497124075599,1.56121610517667,9.1207888249795,0.493015612161055,10.9285127362367,1.47904683648317,2.30073952341826,2.62941659819229]	
		}
	},		
	"graph3": {		
		"header": "Select a band to explore",	
		"data" : {	
			"ARGENTINA": 50,
			"AUSTRALIA": 41,
			"AUSTRIA": 58,
			"BELGIUM": 45,
			"BRAZIL": 52,
			"BULGARIA": 62,
			"CANADA": 48,
			"CHINA": 16,
			"COLOMBIA": 54,
			"COSTA RICA": 49,
			"CROATIA": 75,
			"CZECH REPUBLIC": 35,
			"FINLAND": 67,
			"FRANCE": 36,
			"GERMANY": 64,
			"GREECE": 77,
			"GUATEMALA": 43,
			"HONG KONG": 75,
			"HUNGARY": 72,
			"INDIA": 63,
			"IRELAND": 27,
			"ISRAEL": 65,
			"ITALY": 47,
			"JAPAN": 88,
			"MEXICO": 52,
			"NETHERLANDS": 37,
			"NEW ZEALAND": 57,
			"NORWAY": 33,
			"PANAMA": 43,
			"PERU": 54,
			"POLAND": 70,
			"PORTUGAL": 57,
			"ROMANIA": 86,
			"SINGAPORE": 41,
			"SLOVAKIA": 57,
			"SLOVENIA": 63,
			"SOUTH AFRICA": 34,
			"SPAIN": 41,
			"SWEDEN": 64,
			"SWITZERLAND": 38,
			"TAIWAN": 77,
			"TURKEY": 51,
			"UK": 23,
			"USA": 69
		}	
	},		
	"graph4": {		
		"header": "Compare by country",	
		"data" : {	
			"GLOBAL": [40,53,62,72],	
			"ARGENTINA": [51,51,50,47],	
			"AUSTRALIA": [19,45,49,57],	
			"AUSTRIA": [52,66,77,82],	
			"BELGIUM": [43,46,61,71],	
			"BRAZIL": [27,44,61,59],	
			"BULGARIA": [42,59,69,71],	
			"CANADA": [28,44,55,70],	
			"CHINA": [13,23,22,26],	
			"COLOMBIA": [67,52,50,63],	
			"COSTA RICA": [65,36,54,68],	
			"CROATIA": [63,72,83,81],	
			"CZECH REPUBLIC": [28,55,74,85],	
			"FINLAND": [66,80,65,69],	
			"FRANCE": [31,54,53,76],	
			"GERMANY": [57,68,79,78],	
			"GREECE": [74,76,78,82],	
			"GUATEMALA": [30,39,54,59],	
			"HONG KONG": [44,70,81,94],	
			"HUNGARY": [65,71,70,83],	
			"INDIA": [0,67,63,63],	
			"IRELAND": [18,30,48,75],	
			"ISRAEL": [44,62,68,84],	
			"ITALY": [36,64,68,84],	
			"JAPAN": [0,73,91,88],	
			"MEXICO": [34,48,52,65],	
			"NETHERLANDS": [33,52,70,73],	
			"NEW ZEALAND": [34,49,68,80],	
			"NORWAY": [29,41,43,71],	
			"PANAMA": [33,43,43,49],	
			"PERU": [53,49,53,67],	
			"POLAND": [48,70,76,85],	
			"PORTUGAL": [46,59,58,66],	
			"ROMANIA": [80,71,88,91],	
			"SINGAPORE": [19,41,62,73],	
			"SLOVAKIA": [35,46,68,83],	
			"SLOVENIA": [38,56,76,85],	
			"SOUTH AFRICA": [22,31,40,42],	
			"SPAIN": [36,48,51,66],	
			"SWEDEN": [61,73,76,89],	
			"SWITZERLAND": [36,51,60,69],	
			"TAIWAN": [0,68,77,81],	
			"TURKEY": [45,55,48,61],	
			"UK": [21,25,35,51],	
			"USA": [41,68,75,71]	
		}	
	},		
	"graph5": {		
		"header": "Select country to compare drivers",	
		"data" : {	
			"GLOBAL": [29,20,19,8,12,2,4,5,2],
			"ARGENTINA": [17,17,27,13,10,8,2,6,1],
			"AUSTRALIA": [25,19,21,7,10,1,9,6,2],
			"AUSTRIA": [29,12,29,5,9,1,0,10,4],
			"BELGIUM": [36,15,20,14,2,1,2,7,3],
			"BRAZIL": [8,23,33,19,8,4,1,1,2],
			"BULGARIA": [38,11,24,9,11,2,2,3,0],
			"CANADA": [26,19,17,7,12,2,7,8,2],
			"CHINA": [9,47,5,2,11,3,1,8,14],
			"COLOMBIA": [21,34,17,3,12,2,3,7,0],
			"COSTA RICA": [20,23,30,5,13,1,4,4,0],
			"CZECH REPUBLIC": [39,11,17,13,10,1,4,4,1],
			"FINLAND": [29,17,21,7,6,0,10,7,2],
			"FRANCE": [44,12,20,8,3,2,1,5,4],
			"GERMANY": [34,7,27,7,7,2,6,7,3],
			"GREECE": [17,27,25,7,12,3,4,5,0],
			"GUATEMALA": [9,39,22,6,12,4,1,5,0],
			"HONG KONG": [40,19,6,9,14,1,7,2,2],
			"HUNGARY": [35,12,14,6,25,3,0,2,2],
			"INDIA": [18,25,26,8,15,1,2,4,2],
			"IRELAND": [26,28,18,7,7,3,5,5,1],
			"ISRAEL": [31,20,7,10,18,2,6,3,4],
			"ITALY": [17,34,17,14,4,2,7,3,2],
			"JAPAN": [42,13,14,16,8,3,1,1,2],
			"MEXICO": [18,18,17,7,21,7,4,7,1],
			"NETHERLANDS": [43,21,7,14,0,2,0,11,1],
			"NEW ZEALAND": [25,22,21,8,8,1,7,6,2],
			"NORWAY": [24,20,24,6,3,0,1,11,11],
			"PANAMA": [16,27,21,8,13,7,1,8,0],
			"PERU": [14,28,17,5,18,7,1,8,1],
			"POLAND": [52,12,8,1,18,1,1,6,1],
			"PORTUGAL": [24,13,25,10,10,2,7,10,0],
			"ROMANIA": [41,16,22,3,15,2,0,0,1],
			"SINGAPORE": [22,28,10,3,27,0,0,5,4],
			"SLOVAKIA": [32,5,22,3,20,1,4,12,1],
			"SLOVENIA": [53,16,11,6,6,1,2,6,0],
			"SOUTH AFRICA": [10,29,18,9,14,2,7,10,1],
			"SPAIN": [19,29,29,3,6,4,0,7,2],
			"SWEDEN": [15,20,32,10,6,1,4,3,10],
			"SWITZERLAND": [29,17,30,14,3,0,1,6,0],
			"TAIWAN": [51,14,9,5,13,1,6,1,1],
			"TURKEY": [17,31,20,4,20,2,4,1,0],
			"UK": [30,26,14,6,8,1,9,3,2],
			"USA": [26,21,14,7,16,3,3,5,5]
		}	
	}		
}